R上級編
…
---
## その前に：鈴木さんのdplyrのお悩み相談

`dplyr`を初め、Rにとって**縦長データの方が扱いやすい**ことが多い

今の形：幅広い

```r
trait_data <- read_csv("data/repData0001_5traits_motility_taxonomy_condensed_traits_GTDB.csv")

print(trait_data, n = 6)
```

```
## # A tibble: 10,793 x 19
##      X1  tax_id species_tax_id data_source org_name        ref_id
##   <dbl>   <dbl>          <dbl> <chr>       <chr>            <dbl>
## 1     1  258515         258515 fierer      Acetanaerobact…   1748
## 2     2  483199         483199 fierer      Acetobacter fa…   1749
## 3     3  431306         431306 fierer      Acetobacter gh…   1750
## 4     4  343013         343013 fierer      Acidovorax cae…   1759
## 5     5  592050         592050 fierer      Acidovorax soli   1760
## 6     6 1177982        1177982 fierer      Acidovorax wau…   1761
## # … with 10,787 more rows, and 13 more variables:
## #   superkingdom <chr>, phylum <chr>, class <chr>, order <chr>,
## #   family <chr>, genus <chr>, species <chr>,
## #   scidata_taxonomy <chr>, cell_shape <chr>, motility <chr>,
## #   gram_stain <chr>, metabolism <chr>, sporulation <chr>
```
---
count: false
 
## 縦長にすると扱いやすくなります
.panel1-suzuki-data-transform-user[

```r
*trait_data
```
]
 
.panel2-suzuki-data-transform-user[

```
## # A tibble: 10,793 x 19
##       X1  tax_id species_tax_id data_source org_name       ref_id
##    <dbl>   <dbl>          <dbl> <chr>       <chr>           <dbl>
##  1     1  258515         258515 fierer      Acetanaerobac…   1748
##  2     2  483199         483199 fierer      Acetobacter f…   1749
##  3     3  431306         431306 fierer      Acetobacter g…   1750
##  4     4  343013         343013 fierer      Acidovorax ca…   1759
##  5     5  592050         592050 fierer      Acidovorax so…   1760
##  6     6 1177982        1177982 fierer      Acidovorax wa…   1761
##  7     7  262668         262668 fierer      Acinetobacter…   1762
##  8     8 1219383        1219383 fierer      Acinetobacter…   1764
##  9     9  756892         756892 fierer      Acinetobacter…   1765
## 10    10 1226327        1226327 fierer      Acinetobacter…   1766
## # … with 10,783 more rows, and 13 more variables:
## #   superkingdom <chr>, phylum <chr>, class <chr>, order <chr>,
## #   family <chr>, genus <chr>, species <chr>,
## #   scidata_taxonomy <chr>, cell_shape <chr>, motility <chr>,
## #   gram_stain <chr>, metabolism <chr>, sporulation <chr>
```
…
## 縦長にすると扱いやすくなります
.panel1-suzuki-data-transform-user[

```r
trait_data %>%
* select(cell_shape:sporulation)
```
]
 
.panel2-suzuki-data-transform-user[

```
## # A tibble: 10,793 x 5
##    cell_shape    motility gram_stain metabolism       sporulation
##    <chr>         <chr>    <chr>      <chr>            <chr>      
##  1 bacillus      yes      positive   anaerobic        no         
##  2 coccobacillus yes      negative   obligate aerobic no         
##  3 bacillus      yes      negative   obligate aerobic <NA>       
##  4 bacillus      yes      negative   facultative      no         
##  5 bacillus      no       <NA>       aerobic          <NA>       
##  6 bacillus      yes      <NA>       obligate aerobic <NA>       
##  7 coccobacillus no       negative   <NA>             no         
##  8 coccobacillus no       <NA>       <NA>             no         
##  9 coccobacillus no       negative   <NA>             no         
## 10 coccobacillus no       <NA>       <NA>             <NA>       
## # … with 10,783 more rows
```
…
```r
trait_data %>%
  select(cell_shape:sporulation) %>%
* pivot_longer(
*   names_to = "trait",
*   values_to = "value",
*   everything())
```
]
 
.panel2-suzuki-data-transform-user[

```
## # A tibble: 53,965 x 2
##    trait       value           
##    <chr>       <chr>           
##  1 cell_shape  bacillus        
##  2 motility    yes             
##  3 gram_stain  positive        
##  4 metabolism  anaerobic       
##  5 sporulation no              
##  6 cell_shape  coccobacillus   
##  7 motility    yes             
##  8 gram_stain  negative        
##  9 metabolism  obligate aerobic
## 10 sporulation no              
## # … with 53,955 more rows
```
…
```r
*trait_data %>%
* select(cell_shape:sporulation) %>%
* pivot_longer(
*   names_to = "trait",
*   values_to = "value",
*   everything())
```
]
 
.panel2-suzuki-data-transform-2-user[

```
## # A tibble: 53,965 x 2
##    trait       value           
##    <chr>       <chr>           
##  1 cell_shape  bacillus        
##  2 motility    yes             
##  3 gram_stain  positive        
##  4 metabolism  anaerobic       
##  5 sporulation no              
##  6 cell_shape  coccobacillus   
##  7 motility    yes             
##  8 gram_stain  negative        
##  9 metabolism  obligate aerobic
## 10 sporulation no              
## # … with 53,955 more rows
```
…
